module gitlab.com/aptrust/infrastructure-as-code-and-orchestration

go 1.23.4

require (
	github.com/aws/aws-sdk-go-v2/config v1.29.7
	github.com/aws/aws-sdk-go-v2/credentials v1.17.60
	github.com/aws/aws-sdk-go-v2/service/s3 v1.77.1
)

require (
	github.com/aws/aws-sdk-go-v2 v1.36.2 // indirect
	github.com/aws/aws-sdk-go-v2/aws/protocol/eventstream v1.6.10 // indirect
	github.com/aws/aws-sdk-go-v2/feature/ec2/imds v1.16.29 // indirect
	github.com/aws/aws-sdk-go-v2/internal/configsources v1.3.33 // indirect
	github.com/aws/aws-sdk-go-v2/internal/endpoints/v2 v2.6.33 // indirect
	github.com/aws/aws-sdk-go-v2/internal/ini v1.8.3 // indirect
	github.com/aws/aws-sdk-go-v2/internal/v4a v1.3.33 // indirect
	github.com/aws/aws-sdk-go-v2/service/internal/accept-encoding v1.12.3 // indirect
	github.com/aws/aws-sdk-go-v2/service/internal/checksum v1.6.1 // indirect
	github.com/aws/aws-sdk-go-v2/service/internal/presigned-url v1.12.14 // indirect
	github.com/aws/aws-sdk-go-v2/service/internal/s3shared v1.18.14 // indirect
	github.com/aws/aws-sdk-go-v2/service/sso v1.24.16 // indirect
	github.com/aws/aws-sdk-go-v2/service/ssooidc v1.28.15 // indirect
	github.com/aws/aws-sdk-go-v2/service/sts v1.33.15 // indirect
	github.com/aws/smithy-go v1.22.2 // indirect
)
